n,dna,sizes,directions,iterations
1,PPPP,1111,0246,1111
2,SSSS,1111,0246,4444
3,TTTT,2222,5713,3333
4,PTPT,1111,0044,1313
5,SSDPD,11111,02666,33111
6,SSP8,1212,0034,1115
7,PSP,222,026,141
8,T88,222,046,433
9,SP8TD,12211,04600,31311
10,SPPPS,11111,00642,21112
11,SPSPSPSP,11111111,60022446,21212121
12,RRRR,2222,0246,1111
13,RSRS,1111,0246,1212
14,RRRR,2222,0246,2222
15,RSRS,1111,0246,3333
16,PPPPJPPPP,111131111,317565713,111111111
17,RRRRRRRRRRR88,1111111111111,0767012343246,1111111111133
18,RRRRRRPPPPPP,123321111111,000444111357,111111111111
19,44444444488,12345432112,11110000044,44444444488
20,444444JPPPPJJPDPD,12345661212211212,01234521357243175,44444411111111111